Replace Part B? CPT-9019S-SMT-TR in C:\Users\Profil\Documents\Semestr 7\PADS\mk666666-etap_1_dwa_elementy-4223a8c41deb\RETRO.SchDoc with CPT-9019S-SMT-TR from Zegar.SchLib
Replace Part C? AS0805KKX7R9BB104 in C:\Users\Profil\Documents\Semestr 7\PADS\mk666666-etap_1_dwa_elementy-4223a8c41deb\RETRO.SchDoc with AS0805KKX7R9BB104 from Zegar.SchLib
Replace Part C? C0805C150K5RACAUTO in C:\Users\Profil\Documents\Semestr 7\PADS\mk666666-etap_1_dwa_elementy-4223a8c41deb\RETRO.SchDoc with C0805C150K5RACAUTO from Zegar.SchLib
Replace Part C? C0805C150K5RACAUTO in C:\Users\Profil\Documents\Semestr 7\PADS\mk666666-etap_1_dwa_elementy-4223a8c41deb\RETRO.SchDoc with C0805C150K5RACAUTO from Zegar.SchLib
Replace Part C? C0805C102J2GECAUTO in C:\Users\Profil\Documents\Semestr 7\PADS\mk666666-etap_1_dwa_elementy-4223a8c41deb\RETRO.SchDoc with C0805C102J2GECAUTO from Zegar.SchLib
Replace Part C? EDH476M200A9TAA in C:\Users\Profil\Documents\Semestr 7\PADS\mk666666-etap_1_dwa_elementy-4223a8c41deb\RETRO.SchDoc with EDH476M200A9TAA from Zegar.SchLib
Replace Part CPU? ATMEGA8-16PI in C:\Users\Profil\Documents\Semestr 7\PADS\mk666666-etap_1_dwa_elementy-4223a8c41deb\RETRO.SchDoc with ATMEGA8-16PI from Zegar.SchLib
Replace Part CPU? ATMEGA8-16PI in C:\Users\Profil\Documents\Semestr 7\PADS\mk666666-etap_1_dwa_elementy-4223a8c41deb\RETRO.SchDoc with ATMEGA8-16PI from Zegar.SchLib
Replace Part CPU? ATMEGA8-16PI in C:\Users\Profil\Documents\Semestr 7\PADS\mk666666-etap_1_dwa_elementy-4223a8c41deb\RETRO.SchDoc with ATMEGA8-16PI from Zegar.SchLib
Replace Part D10 BAV21-TR in C:\Users\Profil\Documents\Semestr 7\PADS\mk666666-etap_1_dwa_elementy-4223a8c41deb\RETRO.SchDoc with BAV21-TR from Zegar.SchLib
Replace Part D11 BAV21-TR in C:\Users\Profil\Documents\Semestr 7\PADS\mk666666-etap_1_dwa_elementy-4223a8c41deb\RETRO.SchDoc with BAV21-TR from Zegar.SchLib
Replace Part D12 BAV21-TR in C:\Users\Profil\Documents\Semestr 7\PADS\mk666666-etap_1_dwa_elementy-4223a8c41deb\RETRO.SchDoc with BAV21-TR from Zegar.SchLib
Replace Part D13 BAV21-TR in C:\Users\Profil\Documents\Semestr 7\PADS\mk666666-etap_1_dwa_elementy-4223a8c41deb\RETRO.SchDoc with BAV21-TR from Zegar.SchLib
Replace Part D14 BAV21-TR in C:\Users\Profil\Documents\Semestr 7\PADS\mk666666-etap_1_dwa_elementy-4223a8c41deb\RETRO.SchDoc with BAV21-TR from Zegar.SchLib
Replace Part D15 BAV21-TR in C:\Users\Profil\Documents\Semestr 7\PADS\mk666666-etap_1_dwa_elementy-4223a8c41deb\RETRO.SchDoc with BAV21-TR from Zegar.SchLib
Replace Part D16 BAV21-TR in C:\Users\Profil\Documents\Semestr 7\PADS\mk666666-etap_1_dwa_elementy-4223a8c41deb\RETRO.SchDoc with BAV21-TR from Zegar.SchLib
Replace Part D17 BAV21-TR in C:\Users\Profil\Documents\Semestr 7\PADS\mk666666-etap_1_dwa_elementy-4223a8c41deb\RETRO.SchDoc with BAV21-TR from Zegar.SchLib
Replace Part D18 BAV21-TR in C:\Users\Profil\Documents\Semestr 7\PADS\mk666666-etap_1_dwa_elementy-4223a8c41deb\RETRO.SchDoc with BAV21-TR from Zegar.SchLib
Replace Part D19 BAV21-TR in C:\Users\Profil\Documents\Semestr 7\PADS\mk666666-etap_1_dwa_elementy-4223a8c41deb\RETRO.SchDoc with BAV21-TR from Zegar.SchLib
Replace Part D? 1N4148WQ-7-F in C:\Users\Profil\Documents\Semestr 7\PADS\mk666666-etap_1_dwa_elementy-4223a8c41deb\RETRO.SchDoc with 1N4148WQ-7-F from Zegar.SchLib
Replace Part D? 1N4148WQ-7-F in C:\Users\Profil\Documents\Semestr 7\PADS\mk666666-etap_1_dwa_elementy-4223a8c41deb\RETRO.SchDoc with 1N4148WQ-7-F from Zegar.SchLib
Replace Part D? 1N4148WQ-7-F in C:\Users\Profil\Documents\Semestr 7\PADS\mk666666-etap_1_dwa_elementy-4223a8c41deb\RETRO.SchDoc with 1N4148WQ-7-F from Zegar.SchLib
Replace Part D? 1N4148WQ-7-F in C:\Users\Profil\Documents\Semestr 7\PADS\mk666666-etap_1_dwa_elementy-4223a8c41deb\RETRO.SchDoc with 1N4148WQ-7-F from Zegar.SchLib
Replace Part D? EDZVFHT2R5.1B in C:\Users\Profil\Documents\Semestr 7\PADS\mk666666-etap_1_dwa_elementy-4223a8c41deb\RETRO.SchDoc with EDZVFHT2R5.1B from Zegar.SchLib
Replace Part D? SF26 R0G in C:\Users\Profil\Documents\Semestr 7\PADS\mk666666-etap_1_dwa_elementy-4223a8c41deb\RETRO.SchDoc with SF26 R0G from Zegar.SchLib
Replace Part D? EDZVFHT2R5.1B in C:\Users\Profil\Documents\Semestr 7\PADS\mk666666-etap_1_dwa_elementy-4223a8c41deb\RETRO.SchDoc with EDZVFHT2R5.1B from Zegar.SchLib
Replace Part L? 5100-253441 in C:\Users\Profil\Documents\Semestr 7\PADS\mk666666-etap_1_dwa_elementy-4223a8c41deb\RETRO.SchDoc with 5100-253441 from Zegar.SchLib
Replace Part P? XG8V-0831 in C:\Users\Profil\Documents\Semestr 7\PADS\mk666666-etap_1_dwa_elementy-4223a8c41deb\RETRO.SchDoc with XG8V-0831 from Zegar.SchLib
Replace Part P? 929852-01-04-RA in C:\Users\Profil\Documents\Semestr 7\PADS\mk666666-etap_1_dwa_elementy-4223a8c41deb\RETRO.SchDoc with 929852-01-04-RA from Zegar.SchLib
Replace Part P? XG8V-0831 in C:\Users\Profil\Documents\Semestr 7\PADS\mk666666-etap_1_dwa_elementy-4223a8c41deb\RETRO.SchDoc with XG8V-0831 from Zegar.SchLib
Replace Part P? 929852-01-04-RA in C:\Users\Profil\Documents\Semestr 7\PADS\mk666666-etap_1_dwa_elementy-4223a8c41deb\RETRO.SchDoc with 929852-01-04-RA from Zegar.SchLib
Replace Part P? XG8V-0831 in C:\Users\Profil\Documents\Semestr 7\PADS\mk666666-etap_1_dwa_elementy-4223a8c41deb\RETRO.SchDoc with XG8V-0831 from Zegar.SchLib
Replace Part P? 929852-01-04-RA in C:\Users\Profil\Documents\Semestr 7\PADS\mk666666-etap_1_dwa_elementy-4223a8c41deb\RETRO.SchDoc with 929852-01-04-RA from Zegar.SchLib
Replace Part P? XG8V-0831 in C:\Users\Profil\Documents\Semestr 7\PADS\mk666666-etap_1_dwa_elementy-4223a8c41deb\RETRO.SchDoc with XG8V-0831 from Zegar.SchLib
Replace Part P? 929852-01-04-RA in C:\Users\Profil\Documents\Semestr 7\PADS\mk666666-etap_1_dwa_elementy-4223a8c41deb\RETRO.SchDoc with 929852-01-04-RA from Zegar.SchLib
Replace Part P? M50-3530442 in C:\Users\Profil\Documents\Semestr 7\PADS\mk666666-etap_1_dwa_elementy-4223a8c41deb\RETRO.SchDoc with M50-3530442 from Zegar.SchLib
Replace Part P? XG8V-0831 in C:\Users\Profil\Documents\Semestr 7\PADS\mk666666-etap_1_dwa_elementy-4223a8c41deb\RETRO.SchDoc with XG8V-0831 from Zegar.SchLib
Replace Part P? M50-3530442 in C:\Users\Profil\Documents\Semestr 7\PADS\mk666666-etap_1_dwa_elementy-4223a8c41deb\RETRO.SchDoc with M50-3530442 from Zegar.SchLib
Replace Part Q? 2SC4102T106S in C:\Users\Profil\Documents\Semestr 7\PADS\mk666666-etap_1_dwa_elementy-4223a8c41deb\RETRO.SchDoc with 2SC4102T106S from Zegar.SchLib
Replace Part Q? 2SC4102T106S in C:\Users\Profil\Documents\Semestr 7\PADS\mk666666-etap_1_dwa_elementy-4223a8c41deb\RETRO.SchDoc with 2SC4102T106S from Zegar.SchLib
Replace Part Q? 2SC4102T106S in C:\Users\Profil\Documents\Semestr 7\PADS\mk666666-etap_1_dwa_elementy-4223a8c41deb\RETRO.SchDoc with 2SC4102T106S from Zegar.SchLib
Replace Part Q? 2SC4102T106S in C:\Users\Profil\Documents\Semestr 7\PADS\mk666666-etap_1_dwa_elementy-4223a8c41deb\RETRO.SchDoc with 2SC4102T106S from Zegar.SchLib
Replace Part Q? 2SC4102T106S in C:\Users\Profil\Documents\Semestr 7\PADS\mk666666-etap_1_dwa_elementy-4223a8c41deb\RETRO.SchDoc with 2SC4102T106S from Zegar.SchLib
Replace Part Q? 2SC4102T106S in C:\Users\Profil\Documents\Semestr 7\PADS\mk666666-etap_1_dwa_elementy-4223a8c41deb\RETRO.SchDoc with 2SC4102T106S from Zegar.SchLib
Replace Part Q? 2SC4102T106S in C:\Users\Profil\Documents\Semestr 7\PADS\mk666666-etap_1_dwa_elementy-4223a8c41deb\RETRO.SchDoc with 2SC4102T106S from Zegar.SchLib
Replace Part Q? 2SC4102T106S in C:\Users\Profil\Documents\Semestr 7\PADS\mk666666-etap_1_dwa_elementy-4223a8c41deb\RETRO.SchDoc with 2SC4102T106S from Zegar.SchLib
Replace Part Q? 2SC4102T106S in C:\Users\Profil\Documents\Semestr 7\PADS\mk666666-etap_1_dwa_elementy-4223a8c41deb\RETRO.SchDoc with 2SC4102T106S from Zegar.SchLib
Replace Part Q? 2SC4102T106S in C:\Users\Profil\Documents\Semestr 7\PADS\mk666666-etap_1_dwa_elementy-4223a8c41deb\RETRO.SchDoc with 2SC4102T106S from Zegar.SchLib
Replace Part Q? 2SC4102T106S in C:\Users\Profil\Documents\Semestr 7\PADS\mk666666-etap_1_dwa_elementy-4223a8c41deb\RETRO.SchDoc with 2SC4102T106S from Zegar.SchLib
Replace Part Q? 2SC4102T106S in C:\Users\Profil\Documents\Semestr 7\PADS\mk666666-etap_1_dwa_elementy-4223a8c41deb\RETRO.SchDoc with 2SC4102T106S from Zegar.SchLib
Replace Part Q? 2SC4102T106S in C:\Users\Profil\Documents\Semestr 7\PADS\mk666666-etap_1_dwa_elementy-4223a8c41deb\RETRO.SchDoc with 2SC4102T106S from Zegar.SchLib
Replace Part Q? 2SC4102T106S in C:\Users\Profil\Documents\Semestr 7\PADS\mk666666-etap_1_dwa_elementy-4223a8c41deb\RETRO.SchDoc with 2SC4102T106S from Zegar.SchLib
Replace Part Q? 2SC4102T106S in C:\Users\Profil\Documents\Semestr 7\PADS\mk666666-etap_1_dwa_elementy-4223a8c41deb\RETRO.SchDoc with 2SC4102T106S from Zegar.SchLib
Replace Part Q? 2SC4102T106S in C:\Users\Profil\Documents\Semestr 7\PADS\mk666666-etap_1_dwa_elementy-4223a8c41deb\RETRO.SchDoc with 2SC4102T106S from Zegar.SchLib
Replace Part Q? 2SC4102T106S in C:\Users\Profil\Documents\Semestr 7\PADS\mk666666-etap_1_dwa_elementy-4223a8c41deb\RETRO.SchDoc with 2SC4102T106S from Zegar.SchLib
Replace Part Q? 2SC4102T106S in C:\Users\Profil\Documents\Semestr 7\PADS\mk666666-etap_1_dwa_elementy-4223a8c41deb\RETRO.SchDoc with 2SC4102T106S from Zegar.SchLib
Replace Part Q? BS170 in C:\Users\Profil\Documents\Semestr 7\PADS\mk666666-etap_1_dwa_elementy-4223a8c41deb\RETRO.SchDoc with BS170 from Zegar.SchLib
Replace Part Q? IRF830APBF in C:\Users\Profil\Documents\Semestr 7\PADS\mk666666-etap_1_dwa_elementy-4223a8c41deb\RETRO.SchDoc with IRF830APBF from Zegar.SchLib
Replace Part R? SG73G2ATTD1002D in C:\Users\Profil\Documents\Semestr 7\PADS\mk666666-etap_1_dwa_elementy-4223a8c41deb\RETRO.SchDoc with SG73G2ATTD1002D from Zegar.SchLib
Replace Part R? SG73G2ATTD1002D in C:\Users\Profil\Documents\Semestr 7\PADS\mk666666-etap_1_dwa_elementy-4223a8c41deb\RETRO.SchDoc with SG73G2ATTD1002D from Zegar.SchLib
Replace Part R? ERA-6AEB364V in C:\Users\Profil\Documents\Semestr 7\PADS\mk666666-etap_1_dwa_elementy-4223a8c41deb\RETRO.SchDoc with ERA-6AEB364V from Zegar.SchLib
Replace Part R? RT0805DRD075K6L in C:\Users\Profil\Documents\Semestr 7\PADS\mk666666-etap_1_dwa_elementy-4223a8c41deb\RETRO.SchDoc with RT0805DRD075K6L from Zegar.SchLib
Replace Part R? AT0805DRD071ML in C:\Users\Profil\Documents\Semestr 7\PADS\mk666666-etap_1_dwa_elementy-4223a8c41deb\RETRO.SchDoc with AT0805DRD071ML from Zegar.SchLib
Replace Part R? ERA-6AEB364V in C:\Users\Profil\Documents\Semestr 7\PADS\mk666666-etap_1_dwa_elementy-4223a8c41deb\RETRO.SchDoc with ERA-6AEB364V from Zegar.SchLib
Replace Part R? RT0805DRD075K6L in C:\Users\Profil\Documents\Semestr 7\PADS\mk666666-etap_1_dwa_elementy-4223a8c41deb\RETRO.SchDoc with RT0805DRD075K6L from Zegar.SchLib
Replace Part R? AT0805DRD071ML in C:\Users\Profil\Documents\Semestr 7\PADS\mk666666-etap_1_dwa_elementy-4223a8c41deb\RETRO.SchDoc with AT0805DRD071ML from Zegar.SchLib
Replace Part R? ERA-6AEB364V in C:\Users\Profil\Documents\Semestr 7\PADS\mk666666-etap_1_dwa_elementy-4223a8c41deb\RETRO.SchDoc with ERA-6AEB364V from Zegar.SchLib
Replace Part R? RT0805DRD075K6L in C:\Users\Profil\Documents\Semestr 7\PADS\mk666666-etap_1_dwa_elementy-4223a8c41deb\RETRO.SchDoc with RT0805DRD075K6L from Zegar.SchLib
Replace Part R? AT0805DRD071ML in C:\Users\Profil\Documents\Semestr 7\PADS\mk666666-etap_1_dwa_elementy-4223a8c41deb\RETRO.SchDoc with AT0805DRD071ML from Zegar.SchLib
Replace Part R? ERA-6AEB364V in C:\Users\Profil\Documents\Semestr 7\PADS\mk666666-etap_1_dwa_elementy-4223a8c41deb\RETRO.SchDoc with ERA-6AEB364V from Zegar.SchLib
Replace Part R? RT0805DRD075K6L in C:\Users\Profil\Documents\Semestr 7\PADS\mk666666-etap_1_dwa_elementy-4223a8c41deb\RETRO.SchDoc with RT0805DRD075K6L from Zegar.SchLib
Replace Part R? AT0805DRD071ML in C:\Users\Profil\Documents\Semestr 7\PADS\mk666666-etap_1_dwa_elementy-4223a8c41deb\RETRO.SchDoc with AT0805DRD071ML from Zegar.SchLib
Replace Part R? ERA-6AEB563V in C:\Users\Profil\Documents\Semestr 7\PADS\mk666666-etap_1_dwa_elementy-4223a8c41deb\RETRO.SchDoc with ERA-6AEB563V from Zegar.SchLib
Replace Part R? ERA-6AEB563V in C:\Users\Profil\Documents\Semestr 7\PADS\mk666666-etap_1_dwa_elementy-4223a8c41deb\RETRO.SchDoc with ERA-6AEB563V from Zegar.SchLib
Replace Part R? ERA-6AEB563V in C:\Users\Profil\Documents\Semestr 7\PADS\mk666666-etap_1_dwa_elementy-4223a8c41deb\RETRO.SchDoc with ERA-6AEB563V from Zegar.SchLib
Replace Part R? ERA-6AEB563V in C:\Users\Profil\Documents\Semestr 7\PADS\mk666666-etap_1_dwa_elementy-4223a8c41deb\RETRO.SchDoc with ERA-6AEB563V from Zegar.SchLib
Replace Part R? ERA-6AEB563V in C:\Users\Profil\Documents\Semestr 7\PADS\mk666666-etap_1_dwa_elementy-4223a8c41deb\RETRO.SchDoc with ERA-6AEB563V from Zegar.SchLib
Replace Part R? ERA-6AEB563V in C:\Users\Profil\Documents\Semestr 7\PADS\mk666666-etap_1_dwa_elementy-4223a8c41deb\RETRO.SchDoc with ERA-6AEB563V from Zegar.SchLib
Replace Part R? ERA-6AEB563V in C:\Users\Profil\Documents\Semestr 7\PADS\mk666666-etap_1_dwa_elementy-4223a8c41deb\RETRO.SchDoc with ERA-6AEB563V from Zegar.SchLib
Replace Part R? ERA-6AEB563V in C:\Users\Profil\Documents\Semestr 7\PADS\mk666666-etap_1_dwa_elementy-4223a8c41deb\RETRO.SchDoc with ERA-6AEB563V from Zegar.SchLib
Replace Part R? ERA-6AEB563V in C:\Users\Profil\Documents\Semestr 7\PADS\mk666666-etap_1_dwa_elementy-4223a8c41deb\RETRO.SchDoc with ERA-6AEB563V from Zegar.SchLib
Replace Part R? ERA-6AEB563V in C:\Users\Profil\Documents\Semestr 7\PADS\mk666666-etap_1_dwa_elementy-4223a8c41deb\RETRO.SchDoc with ERA-6AEB563V from Zegar.SchLib
Replace Part R? RC0805JR-1047KL in C:\Users\Profil\Documents\Semestr 7\PADS\mk666666-etap_1_dwa_elementy-4223a8c41deb\RETRO.SchDoc with RC0805JR-1047KL from Zegar.SchLib
Replace Part R? AT0805FRE07100KL in C:\Users\Profil\Documents\Semestr 7\PADS\mk666666-etap_1_dwa_elementy-4223a8c41deb\RETRO.SchDoc with AT0805FRE07100KL from Zegar.SchLib
Replace Part R? SR0805FR-471KL in C:\Users\Profil\Documents\Semestr 7\PADS\mk666666-etap_1_dwa_elementy-4223a8c41deb\RETRO.SchDoc with SR0805FR-471KL from Zegar.SchLib
Replace Part R? CRGS0805J2R7 in C:\Users\Profil\Documents\Semestr 7\PADS\mk666666-etap_1_dwa_elementy-4223a8c41deb\RETRO.SchDoc with CRGS0805J2R7 from Zegar.SchLib
Replace Part R? ERJ-PB6D7503V in C:\Users\Profil\Documents\Semestr 7\PADS\mk666666-etap_1_dwa_elementy-4223a8c41deb\RETRO.SchDoc with ERJ-PB6D7503V from Zegar.SchLib
Replace Part R? RT0805FRE07390KL in C:\Users\Profil\Documents\Semestr 7\PADS\mk666666-etap_1_dwa_elementy-4223a8c41deb\RETRO.SchDoc with RT0805FRE07390KL from Zegar.SchLib
Replace Part R? SG73G2ATTD2201D in C:\Users\Profil\Documents\Semestr 7\PADS\mk666666-etap_1_dwa_elementy-4223a8c41deb\RETRO.SchDoc with SG73G2ATTD2201D from Zegar.SchLib
Replace Part R? SR0805FR-471KL in C:\Users\Profil\Documents\Semestr 7\PADS\mk666666-etap_1_dwa_elementy-4223a8c41deb\RETRO.SchDoc with SR0805FR-471KL from Zegar.SchLib
Replace Part R? CRCW08054R70FKEAC in C:\Users\Profil\Documents\Semestr 7\PADS\mk666666-etap_1_dwa_elementy-4223a8c41deb\RETRO.SchDoc with CRCW08054R70FKEAC from Zegar.SchLib
Replace Part RV? PRS11S-N20F-103B1 in C:\Users\Profil\Documents\Semestr 7\PADS\mk666666-etap_1_dwa_elementy-4223a8c41deb\RETRO.SchDoc with PRS11S-N20F-103B1 from Zegar.SchLib
Replace Part U1 CD4028BM in C:\Users\Profil\Documents\Semestr 7\PADS\mk666666-etap_1_dwa_elementy-4223a8c41deb\RETRO.SchDoc with CD4028BM from Zegar.SchLib
Replace Part U2 SN74HC164N in C:\Users\Profil\Documents\Semestr 7\PADS\mk666666-etap_1_dwa_elementy-4223a8c41deb\RETRO.SchDoc with SN74HC164N from Zegar.SchLib
Replace Part U? DS18B20+ in C:\Users\Profil\Documents\Semestr 7\PADS\mk666666-etap_1_dwa_elementy-4223a8c41deb\RETRO.SchDoc with DS18B20+ from Zegar.SchLib
Replace Part X? ECS-160-18-23G-JGN-TR in C:\Users\Profil\Documents\Semestr 7\PADS\mk666666-etap_1_dwa_elementy-4223a8c41deb\RETRO.SchDoc with ECS-160-18-23G-JGN-TR from Zegar.SchLib
