Replace Part B1 CPT-9019S-SMT-TR in C:\Users\Profil\Documents\Semestr 7\PADS\mk666666-etap_1_dwa_elementy-4223a8c41deb\RETRO.SchDoc with CPT-9019S-SMT-TR from Zegar.SchLib
Replace Part B? MJE350 in C:\Users\Profil\Documents\Semestr 7\PADS\mk666666-etap_1_dwa_elementy-4223a8c41deb\RETRO.SchDoc with MJE350 from Zegar.SchLib
Replace Part B? MJE350 in C:\Users\Profil\Documents\Semestr 7\PADS\mk666666-etap_1_dwa_elementy-4223a8c41deb\RETRO.SchDoc with MJE350 from Zegar.SchLib
Replace Part B? MJE350 in C:\Users\Profil\Documents\Semestr 7\PADS\mk666666-etap_1_dwa_elementy-4223a8c41deb\RETRO.SchDoc with MJE350 from Zegar.SchLib
Replace Part B? MJE350 in C:\Users\Profil\Documents\Semestr 7\PADS\mk666666-etap_1_dwa_elementy-4223a8c41deb\RETRO.SchDoc with MJE350 from Zegar.SchLib
Replace Part BT1 967 in C:\Users\Profil\Documents\Semestr 7\PADS\mk666666-etap_1_dwa_elementy-4223a8c41deb\RETRO.SchDoc with 967 from Zegar.SchLib
Replace Part C1 0805ZC334K4T4A in C:\Users\Profil\Documents\Semestr 7\PADS\mk666666-etap_1_dwa_elementy-4223a8c41deb\RETRO.SchDoc with 0805ZC334K4T4A from Zegar.SchLib
Replace Part C2 C0805C103K1HACAUTO in C:\Users\Profil\Documents\Semestr 7\PADS\mk666666-etap_1_dwa_elementy-4223a8c41deb\RETRO.SchDoc with C0805C103K1HACAUTO from Zegar.SchLib
Replace Part C3 C0805C150K5RACAUTO in C:\Users\Profil\Documents\Semestr 7\PADS\mk666666-etap_1_dwa_elementy-4223a8c41deb\RETRO.SchDoc with C0805C150K5RACAUTO from Zegar.SchLib
Replace Part C4 C0805C150K5RACAUTO in C:\Users\Profil\Documents\Semestr 7\PADS\mk666666-etap_1_dwa_elementy-4223a8c41deb\RETRO.SchDoc with C0805C150K5RACAUTO from Zegar.SchLib
Replace Part C5 EDH476M200A9TAA in C:\Users\Profil\Documents\Semestr 7\PADS\mk666666-etap_1_dwa_elementy-4223a8c41deb\RETRO.SchDoc with EDH476M200A9TAA from Zegar.SchLib
Replace Part C6 AS0805KKX7R9BB104 in C:\Users\Profil\Documents\Semestr 7\PADS\mk666666-etap_1_dwa_elementy-4223a8c41deb\RETRO.SchDoc with AS0805KKX7R9BB104 from Zegar.SchLib
Replace Part C7 C0805C102J2GECAUTO in C:\Users\Profil\Documents\Semestr 7\PADS\mk666666-etap_1_dwa_elementy-4223a8c41deb\RETRO.SchDoc with C0805C102J2GECAUTO from Zegar.SchLib
Replace Part C8 AS0805KKX7R9BB104 in C:\Users\Profil\Documents\Semestr 7\PADS\mk666666-etap_1_dwa_elementy-4223a8c41deb\RETRO.SchDoc with AS0805KKX7R9BB104 from Zegar.SchLib
Replace Part C9 AS0805KKX7R9BB104 in C:\Users\Profil\Documents\Semestr 7\PADS\mk666666-etap_1_dwa_elementy-4223a8c41deb\RETRO.SchDoc with AS0805KKX7R9BB104 from Zegar.SchLib
Replace Part C10 AS0805KKX7R9BB104 in C:\Users\Profil\Documents\Semestr 7\PADS\mk666666-etap_1_dwa_elementy-4223a8c41deb\RETRO.SchDoc with AS0805KKX7R9BB104 from Zegar.SchLib
Replace Part C11 AS0805KKX7R9BB104 in C:\Users\Profil\Documents\Semestr 7\PADS\mk666666-etap_1_dwa_elementy-4223a8c41deb\RETRO.SchDoc with AS0805KKX7R9BB104 from Zegar.SchLib
Replace Part C12 LMK212BBJ226MG-T in C:\Users\Profil\Documents\Semestr 7\PADS\mk666666-etap_1_dwa_elementy-4223a8c41deb\RETRO.SchDoc with LMK212BBJ226MG-T from Zegar.SchLib
Replace Part C13 AS0805KKX7R9BB104 in C:\Users\Profil\Documents\Semestr 7\PADS\mk666666-etap_1_dwa_elementy-4223a8c41deb\RETRO.SchDoc with AS0805KKX7R9BB104 from Zegar.SchLib
Replace Part CPU1 ATMEGA8-16PI in C:\Users\Profil\Documents\Semestr 7\PADS\mk666666-etap_1_dwa_elementy-4223a8c41deb\RETRO.SchDoc with ATMEGA8-16PI from Zegar.SchLib
Replace Part CPU1 ATMEGA8-16PI in C:\Users\Profil\Documents\Semestr 7\PADS\mk666666-etap_1_dwa_elementy-4223a8c41deb\RETRO.SchDoc with ATMEGA8-16PI from Zegar.SchLib
Replace Part CPU1 ATMEGA8-16PI in C:\Users\Profil\Documents\Semestr 7\PADS\mk666666-etap_1_dwa_elementy-4223a8c41deb\RETRO.SchDoc with ATMEGA8-16PI from Zegar.SchLib
Replace Part D1 BAT42 in C:\Users\Profil\Documents\Semestr 7\PADS\mk666666-etap_1_dwa_elementy-4223a8c41deb\RETRO.SchDoc with BAT42 from Zegar.SchLib
Replace Part D2 BAT42 in C:\Users\Profil\Documents\Semestr 7\PADS\mk666666-etap_1_dwa_elementy-4223a8c41deb\RETRO.SchDoc with BAT42 from Zegar.SchLib
Replace Part D3 EDZVFHT2R5.1B in C:\Users\Profil\Documents\Semestr 7\PADS\mk666666-etap_1_dwa_elementy-4223a8c41deb\RETRO.SchDoc with EDZVFHT2R5.1B from Zegar.SchLib
Replace Part D4 1N4148WQ-7-F in C:\Users\Profil\Documents\Semestr 7\PADS\mk666666-etap_1_dwa_elementy-4223a8c41deb\RETRO.SchDoc with 1N4148WQ-7-F from Zegar.SchLib
Replace Part D5 SF26 R0G in C:\Users\Profil\Documents\Semestr 7\PADS\mk666666-etap_1_dwa_elementy-4223a8c41deb\RETRO.SchDoc with SF26 R0G from Zegar.SchLib
Replace Part D6 1N4148WQ-7-F in C:\Users\Profil\Documents\Semestr 7\PADS\mk666666-etap_1_dwa_elementy-4223a8c41deb\RETRO.SchDoc with 1N4148WQ-7-F from Zegar.SchLib
Replace Part D7 1N4148WQ-7-F in C:\Users\Profil\Documents\Semestr 7\PADS\mk666666-etap_1_dwa_elementy-4223a8c41deb\RETRO.SchDoc with 1N4148WQ-7-F from Zegar.SchLib
Replace Part D8 1N4148WQ-7-F in C:\Users\Profil\Documents\Semestr 7\PADS\mk666666-etap_1_dwa_elementy-4223a8c41deb\RETRO.SchDoc with 1N4148WQ-7-F from Zegar.SchLib
Replace Part D9 EDZVFHT2R5.1B in C:\Users\Profil\Documents\Semestr 7\PADS\mk666666-etap_1_dwa_elementy-4223a8c41deb\RETRO.SchDoc with EDZVFHT2R5.1B from Zegar.SchLib
Replace Part D10 BAV21-TR in C:\Users\Profil\Documents\Semestr 7\PADS\mk666666-etap_1_dwa_elementy-4223a8c41deb\RETRO.SchDoc with BAV21-TR from Zegar.SchLib
Replace Part D11 BAV21-TR in C:\Users\Profil\Documents\Semestr 7\PADS\mk666666-etap_1_dwa_elementy-4223a8c41deb\RETRO.SchDoc with BAV21-TR from Zegar.SchLib
Replace Part D12 BAV21-TR in C:\Users\Profil\Documents\Semestr 7\PADS\mk666666-etap_1_dwa_elementy-4223a8c41deb\RETRO.SchDoc with BAV21-TR from Zegar.SchLib
Replace Part D13 BAV21-TR in C:\Users\Profil\Documents\Semestr 7\PADS\mk666666-etap_1_dwa_elementy-4223a8c41deb\RETRO.SchDoc with BAV21-TR from Zegar.SchLib
Replace Part D14 BAV21-TR in C:\Users\Profil\Documents\Semestr 7\PADS\mk666666-etap_1_dwa_elementy-4223a8c41deb\RETRO.SchDoc with BAV21-TR from Zegar.SchLib
Replace Part D15 BAV21-TR in C:\Users\Profil\Documents\Semestr 7\PADS\mk666666-etap_1_dwa_elementy-4223a8c41deb\RETRO.SchDoc with BAV21-TR from Zegar.SchLib
Replace Part D16 BAV21-TR in C:\Users\Profil\Documents\Semestr 7\PADS\mk666666-etap_1_dwa_elementy-4223a8c41deb\RETRO.SchDoc with BAV21-TR from Zegar.SchLib
Replace Part D17 BAV21-TR in C:\Users\Profil\Documents\Semestr 7\PADS\mk666666-etap_1_dwa_elementy-4223a8c41deb\RETRO.SchDoc with BAV21-TR from Zegar.SchLib
Replace Part D18 BAV21-TR in C:\Users\Profil\Documents\Semestr 7\PADS\mk666666-etap_1_dwa_elementy-4223a8c41deb\RETRO.SchDoc with BAV21-TR from Zegar.SchLib
Replace Part D19 BAV21-TR in C:\Users\Profil\Documents\Semestr 7\PADS\mk666666-etap_1_dwa_elementy-4223a8c41deb\RETRO.SchDoc with BAV21-TR from Zegar.SchLib
Replace Part JK1 282836-2 in C:\Users\Profil\Documents\Semestr 7\PADS\mk666666-etap_1_dwa_elementy-4223a8c41deb\RETRO.SchDoc with 282836-2 from Zegar.SchLib
Replace Part K1 0PTF0078P in C:\Users\Profil\Documents\Semestr 7\PADS\mk666666-etap_1_dwa_elementy-4223a8c41deb\RETRO.SchDoc with 0PTF0078P from Zegar.SchLib
Replace Part L1 5100-253441 in C:\Users\Profil\Documents\Semestr 7\PADS\mk666666-etap_1_dwa_elementy-4223a8c41deb\RETRO.SchDoc with 5100-253441 from Zegar.SchLib
Replace Part P1 929852-01-04-RA in C:\Users\Profil\Documents\Semestr 7\PADS\mk666666-etap_1_dwa_elementy-4223a8c41deb\RETRO.SchDoc with 929852-01-04-RA from Zegar.SchLib
Replace Part P2 XG8V-0831 in C:\Users\Profil\Documents\Semestr 7\PADS\mk666666-etap_1_dwa_elementy-4223a8c41deb\RETRO.SchDoc with XG8V-0831 from Zegar.SchLib
Replace Part P3 929852-01-04-RA in C:\Users\Profil\Documents\Semestr 7\PADS\mk666666-etap_1_dwa_elementy-4223a8c41deb\RETRO.SchDoc with 929852-01-04-RA from Zegar.SchLib
Replace Part P4 XG8V-0831 in C:\Users\Profil\Documents\Semestr 7\PADS\mk666666-etap_1_dwa_elementy-4223a8c41deb\RETRO.SchDoc with XG8V-0831 from Zegar.SchLib
Replace Part P5 929852-01-04-RA in C:\Users\Profil\Documents\Semestr 7\PADS\mk666666-etap_1_dwa_elementy-4223a8c41deb\RETRO.SchDoc with 929852-01-04-RA from Zegar.SchLib
Replace Part P6 XG8V-0831 in C:\Users\Profil\Documents\Semestr 7\PADS\mk666666-etap_1_dwa_elementy-4223a8c41deb\RETRO.SchDoc with XG8V-0831 from Zegar.SchLib
Replace Part P7 929852-01-04-RA in C:\Users\Profil\Documents\Semestr 7\PADS\mk666666-etap_1_dwa_elementy-4223a8c41deb\RETRO.SchDoc with 929852-01-04-RA from Zegar.SchLib
Replace Part P8 XG8V-0831 in C:\Users\Profil\Documents\Semestr 7\PADS\mk666666-etap_1_dwa_elementy-4223a8c41deb\RETRO.SchDoc with XG8V-0831 from Zegar.SchLib
Replace Part P9 XG8V-0831 in C:\Users\Profil\Documents\Semestr 7\PADS\mk666666-etap_1_dwa_elementy-4223a8c41deb\RETRO.SchDoc with XG8V-0831 from Zegar.SchLib
Replace Part P10 M50-3530442 in C:\Users\Profil\Documents\Semestr 7\PADS\mk666666-etap_1_dwa_elementy-4223a8c41deb\RETRO.SchDoc with M50-3530442 from Zegar.SchLib
Replace Part P11 M50-3530442 in C:\Users\Profil\Documents\Semestr 7\PADS\mk666666-etap_1_dwa_elementy-4223a8c41deb\RETRO.SchDoc with M50-3530442 from Zegar.SchLib
Replace Part Q1 2SC4102T106S in C:\Users\Profil\Documents\Semestr 7\PADS\mk666666-etap_1_dwa_elementy-4223a8c41deb\RETRO.SchDoc with 2SC4102T106S from Zegar.SchLib
Replace Part Q2 2SC4102T106S in C:\Users\Profil\Documents\Semestr 7\PADS\mk666666-etap_1_dwa_elementy-4223a8c41deb\RETRO.SchDoc with 2SC4102T106S from Zegar.SchLib
Replace Part Q4 2SC4102T106S in C:\Users\Profil\Documents\Semestr 7\PADS\mk666666-etap_1_dwa_elementy-4223a8c41deb\RETRO.SchDoc with 2SC4102T106S from Zegar.SchLib
Replace Part Q5 2SC4102T106S in C:\Users\Profil\Documents\Semestr 7\PADS\mk666666-etap_1_dwa_elementy-4223a8c41deb\RETRO.SchDoc with 2SC4102T106S from Zegar.SchLib
Replace Part Q6 2SC4102T106S in C:\Users\Profil\Documents\Semestr 7\PADS\mk666666-etap_1_dwa_elementy-4223a8c41deb\RETRO.SchDoc with 2SC4102T106S from Zegar.SchLib
Replace Part Q8 2SC4102T106S in C:\Users\Profil\Documents\Semestr 7\PADS\mk666666-etap_1_dwa_elementy-4223a8c41deb\RETRO.SchDoc with 2SC4102T106S from Zegar.SchLib
Replace Part Q9 2SC4102T106S in C:\Users\Profil\Documents\Semestr 7\PADS\mk666666-etap_1_dwa_elementy-4223a8c41deb\RETRO.SchDoc with 2SC4102T106S from Zegar.SchLib
Replace Part Q10 2SC4102T106S in C:\Users\Profil\Documents\Semestr 7\PADS\mk666666-etap_1_dwa_elementy-4223a8c41deb\RETRO.SchDoc with 2SC4102T106S from Zegar.SchLib
Replace Part Q12 2SC4102T106S in C:\Users\Profil\Documents\Semestr 7\PADS\mk666666-etap_1_dwa_elementy-4223a8c41deb\RETRO.SchDoc with 2SC4102T106S from Zegar.SchLib
Replace Part Q13 2SC4102T106S in C:\Users\Profil\Documents\Semestr 7\PADS\mk666666-etap_1_dwa_elementy-4223a8c41deb\RETRO.SchDoc with 2SC4102T106S from Zegar.SchLib
Replace Part Q14 2SC4102T106S in C:\Users\Profil\Documents\Semestr 7\PADS\mk666666-etap_1_dwa_elementy-4223a8c41deb\RETRO.SchDoc with 2SC4102T106S from Zegar.SchLib
Replace Part Q16 2SC4102T106S in C:\Users\Profil\Documents\Semestr 7\PADS\mk666666-etap_1_dwa_elementy-4223a8c41deb\RETRO.SchDoc with 2SC4102T106S from Zegar.SchLib
Replace Part Q17 2SC4102T106S in C:\Users\Profil\Documents\Semestr 7\PADS\mk666666-etap_1_dwa_elementy-4223a8c41deb\RETRO.SchDoc with 2SC4102T106S from Zegar.SchLib
Replace Part Q18 2SC4102T106S in C:\Users\Profil\Documents\Semestr 7\PADS\mk666666-etap_1_dwa_elementy-4223a8c41deb\RETRO.SchDoc with 2SC4102T106S from Zegar.SchLib
Replace Part Q19 IRF830APBF in C:\Users\Profil\Documents\Semestr 7\PADS\mk666666-etap_1_dwa_elementy-4223a8c41deb\RETRO.SchDoc with IRF830APBF from Zegar.SchLib
Replace Part Q20 BS170 in C:\Users\Profil\Documents\Semestr 7\PADS\mk666666-etap_1_dwa_elementy-4223a8c41deb\RETRO.SchDoc with BS170 from Zegar.SchLib
Replace Part R1 AT0805FRE07100KL in C:\Users\Profil\Documents\Semestr 7\PADS\mk666666-etap_1_dwa_elementy-4223a8c41deb\RETRO.SchDoc with AT0805FRE07100KL from Zegar.SchLib
Replace Part R2 RC0805JR-1047KL in C:\Users\Profil\Documents\Semestr 7\PADS\mk666666-etap_1_dwa_elementy-4223a8c41deb\RETRO.SchDoc with RC0805JR-1047KL from Zegar.SchLib
Replace Part R3 SG73G2ATTD1002D in C:\Users\Profil\Documents\Semestr 7\PADS\mk666666-etap_1_dwa_elementy-4223a8c41deb\RETRO.SchDoc with SG73G2ATTD1002D from Zegar.SchLib
Replace Part R4 ERA-6AEB563V in C:\Users\Profil\Documents\Semestr 7\PADS\mk666666-etap_1_dwa_elementy-4223a8c41deb\RETRO.SchDoc with ERA-6AEB563V from Zegar.SchLib
Replace Part R5 ERA-6AEB563V in C:\Users\Profil\Documents\Semestr 7\PADS\mk666666-etap_1_dwa_elementy-4223a8c41deb\RETRO.SchDoc with ERA-6AEB563V from Zegar.SchLib
Replace Part R6 RT0805DRD075K6L in C:\Users\Profil\Documents\Semestr 7\PADS\mk666666-etap_1_dwa_elementy-4223a8c41deb\RETRO.SchDoc with RT0805DRD075K6L from Zegar.SchLib
Replace Part R7 AT0805DRD071ML in C:\Users\Profil\Documents\Semestr 7\PADS\mk666666-etap_1_dwa_elementy-4223a8c41deb\RETRO.SchDoc with AT0805DRD071ML from Zegar.SchLib
Replace Part R8 ERA-6AEB364V in C:\Users\Profil\Documents\Semestr 7\PADS\mk666666-etap_1_dwa_elementy-4223a8c41deb\RETRO.SchDoc with ERA-6AEB364V from Zegar.SchLib
Replace Part R9 ERA-6AEB563V in C:\Users\Profil\Documents\Semestr 7\PADS\mk666666-etap_1_dwa_elementy-4223a8c41deb\RETRO.SchDoc with ERA-6AEB563V from Zegar.SchLib
Replace Part R10 ERA-6AEB563V in C:\Users\Profil\Documents\Semestr 7\PADS\mk666666-etap_1_dwa_elementy-4223a8c41deb\RETRO.SchDoc with ERA-6AEB563V from Zegar.SchLib
Replace Part R11 RT0805DRD075K6L in C:\Users\Profil\Documents\Semestr 7\PADS\mk666666-etap_1_dwa_elementy-4223a8c41deb\RETRO.SchDoc with RT0805DRD075K6L from Zegar.SchLib
Replace Part R12 AT0805DRD071ML in C:\Users\Profil\Documents\Semestr 7\PADS\mk666666-etap_1_dwa_elementy-4223a8c41deb\RETRO.SchDoc with AT0805DRD071ML from Zegar.SchLib
Replace Part R13 ERA-6AEB364V in C:\Users\Profil\Documents\Semestr 7\PADS\mk666666-etap_1_dwa_elementy-4223a8c41deb\RETRO.SchDoc with ERA-6AEB364V from Zegar.SchLib
Replace Part R14 ERA-6AEB563V in C:\Users\Profil\Documents\Semestr 7\PADS\mk666666-etap_1_dwa_elementy-4223a8c41deb\RETRO.SchDoc with ERA-6AEB563V from Zegar.SchLib
Replace Part R15 ERA-6AEB563V in C:\Users\Profil\Documents\Semestr 7\PADS\mk666666-etap_1_dwa_elementy-4223a8c41deb\RETRO.SchDoc with ERA-6AEB563V from Zegar.SchLib
Replace Part R16 RT0805DRD075K6L in C:\Users\Profil\Documents\Semestr 7\PADS\mk666666-etap_1_dwa_elementy-4223a8c41deb\RETRO.SchDoc with RT0805DRD075K6L from Zegar.SchLib
Replace Part R17 AT0805DRD071ML in C:\Users\Profil\Documents\Semestr 7\PADS\mk666666-etap_1_dwa_elementy-4223a8c41deb\RETRO.SchDoc with AT0805DRD071ML from Zegar.SchLib
Replace Part R18 SR0805FR-471KL in C:\Users\Profil\Documents\Semestr 7\PADS\mk666666-etap_1_dwa_elementy-4223a8c41deb\RETRO.SchDoc with SR0805FR-471KL from Zegar.SchLib
Replace Part R19 ERA-6AEB364V in C:\Users\Profil\Documents\Semestr 7\PADS\mk666666-etap_1_dwa_elementy-4223a8c41deb\RETRO.SchDoc with ERA-6AEB364V from Zegar.SchLib
Replace Part R20 ERA-6AEB563V in C:\Users\Profil\Documents\Semestr 7\PADS\mk666666-etap_1_dwa_elementy-4223a8c41deb\RETRO.SchDoc with ERA-6AEB563V from Zegar.SchLib
Replace Part R21 ERA-6AEB563V in C:\Users\Profil\Documents\Semestr 7\PADS\mk666666-etap_1_dwa_elementy-4223a8c41deb\RETRO.SchDoc with ERA-6AEB563V from Zegar.SchLib
Replace Part R22 RT0805DRD075K6L in C:\Users\Profil\Documents\Semestr 7\PADS\mk666666-etap_1_dwa_elementy-4223a8c41deb\RETRO.SchDoc with RT0805DRD075K6L from Zegar.SchLib
Replace Part R23 AT0805DRD071ML in C:\Users\Profil\Documents\Semestr 7\PADS\mk666666-etap_1_dwa_elementy-4223a8c41deb\RETRO.SchDoc with AT0805DRD071ML from Zegar.SchLib
Replace Part R24 ERA-6AEB364V in C:\Users\Profil\Documents\Semestr 7\PADS\mk666666-etap_1_dwa_elementy-4223a8c41deb\RETRO.SchDoc with ERA-6AEB364V from Zegar.SchLib
Replace Part R25 CRCW08054R70FKEAC in C:\Users\Profil\Documents\Semestr 7\PADS\mk666666-etap_1_dwa_elementy-4223a8c41deb\RETRO.SchDoc with CRCW08054R70FKEAC from Zegar.SchLib
Replace Part R26 ERA-6AEB563V in C:\Users\Profil\Documents\Semestr 7\PADS\mk666666-etap_1_dwa_elementy-4223a8c41deb\RETRO.SchDoc with ERA-6AEB563V from Zegar.SchLib
Replace Part R27 ERA-6AEB563V in C:\Users\Profil\Documents\Semestr 7\PADS\mk666666-etap_1_dwa_elementy-4223a8c41deb\RETRO.SchDoc with ERA-6AEB563V from Zegar.SchLib
Replace Part R28 SG73G2ATTD1002D in C:\Users\Profil\Documents\Semestr 7\PADS\mk666666-etap_1_dwa_elementy-4223a8c41deb\RETRO.SchDoc with SG73G2ATTD1002D from Zegar.SchLib
Replace Part R29 SG73G2ATTD2201D in C:\Users\Profil\Documents\Semestr 7\PADS\mk666666-etap_1_dwa_elementy-4223a8c41deb\RETRO.SchDoc with SG73G2ATTD2201D from Zegar.SchLib
Replace Part R30 RT0805FRE07390KL in C:\Users\Profil\Documents\Semestr 7\PADS\mk666666-etap_1_dwa_elementy-4223a8c41deb\RETRO.SchDoc with RT0805FRE07390KL from Zegar.SchLib
Replace Part R31 SG73G2ATTD1002D in C:\Users\Profil\Documents\Semestr 7\PADS\mk666666-etap_1_dwa_elementy-4223a8c41deb\RETRO.SchDoc with SG73G2ATTD1002D from Zegar.SchLib
Replace Part R32 ERJ-PB6D7503V in C:\Users\Profil\Documents\Semestr 7\PADS\mk666666-etap_1_dwa_elementy-4223a8c41deb\RETRO.SchDoc with ERJ-PB6D7503V from Zegar.SchLib
Replace Part R33 SR0805FR-471KL in C:\Users\Profil\Documents\Semestr 7\PADS\mk666666-etap_1_dwa_elementy-4223a8c41deb\RETRO.SchDoc with SR0805FR-471KL from Zegar.SchLib
Replace Part R34 CRGS0805J2R7 in C:\Users\Profil\Documents\Semestr 7\PADS\mk666666-etap_1_dwa_elementy-4223a8c41deb\RETRO.SchDoc with CRGS0805J2R7 from Zegar.SchLib
Replace Part RV1 PRS11S-N20F-103B1 in C:\Users\Profil\Documents\Semestr 7\PADS\mk666666-etap_1_dwa_elementy-4223a8c41deb\RETRO.SchDoc with PRS11S-N20F-103B1 from Zegar.SchLib
Replace Part U1 CD4028BM in C:\Users\Profil\Documents\Semestr 7\PADS\mk666666-etap_1_dwa_elementy-4223a8c41deb\RETRO.SchDoc with CD4028BM from Zegar.SchLib
Replace Part U2 SN74HC164N in C:\Users\Profil\Documents\Semestr 7\PADS\mk666666-etap_1_dwa_elementy-4223a8c41deb\RETRO.SchDoc with SN74HC164N from Zegar.SchLib
Replace Part U3 DS18B20+ in C:\Users\Profil\Documents\Semestr 7\PADS\mk666666-etap_1_dwa_elementy-4223a8c41deb\RETRO.SchDoc with DS18B20+ from Zegar.SchLib
Replace Part U4 UA78L05ACDR in C:\Users\Profil\Documents\Semestr 7\PADS\mk666666-etap_1_dwa_elementy-4223a8c41deb\RETRO.SchDoc with UA78L05ACDR from Zegar.SchLib
Replace Part X1 ECS-160-18-23G-JGN-TR in C:\Users\Profil\Documents\Semestr 7\PADS\mk666666-etap_1_dwa_elementy-4223a8c41deb\RETRO.SchDoc with ECS-160-18-23G-JGN-TR from Zegar.SchLib
