Replace Part CPU? ATMEGA8-16PI in C:\Users\Profil\Documents\Semestr 7\PADS\mk666666-etap_1_dwa_elementy-4223a8c41deb\RETRO.SchDoc with ATMEGA8-16PI from Zegar.SchLib
Replace Part CPU? ATMEGA8-16PI in C:\Users\Profil\Documents\Semestr 7\PADS\mk666666-etap_1_dwa_elementy-4223a8c41deb\RETRO.SchDoc with ATMEGA8-16PI from Zegar.SchLib
Replace Part P? XG8V-0831 in C:\Users\Profil\Documents\Semestr 7\PADS\mk666666-etap_1_dwa_elementy-4223a8c41deb\RETRO.SchDoc with XG8V-0831 from Zegar.SchLib
Replace Part P? M50-3530442 in C:\Users\Profil\Documents\Semestr 7\PADS\mk666666-etap_1_dwa_elementy-4223a8c41deb\RETRO.SchDoc with M50-3530442 from Zegar.SchLib
Replace Part R? CRCW08054R70FKEAC in C:\Users\Profil\Documents\Semestr 7\PADS\mk666666-etap_1_dwa_elementy-4223a8c41deb\RETRO.SchDoc with CRCW08054R70FKEAC from Zegar.SchLib
Replace Part U? DS18B20+ in C:\Users\Profil\Documents\Semestr 7\PADS\mk666666-etap_1_dwa_elementy-4223a8c41deb\RETRO.SchDoc with DS18B20+ from Zegar.SchLib
